<svg width="32" height="32" viewBox="0 0 32 32" fill="none" xmlns="http://www.w3.org/2000/svg">
<path d="M16.7733 0.001585C17.5649 0.255972 18.1284 0.817843 18.6975 1.38922C22.804 5.51014 26.9133 9.63105 31.0255 13.752C31.3073 14.0349 31.5883 14.3646 31.7379 14.7275C32.5753 16.7594 31.3239 18.8286 29.1504 18.9166C28.9842 18.9237 28.818 18.9166 28.5963 18.9166V19.2914C28.5963 22.3591 28.6019 25.4276 28.5963 28.4953C28.5924 30.173 27.527 31.5282 25.9242 31.903C25.6398 31.9655 25.3494 31.9961 25.0582 31.9941C23.4324 32.0029 21.8059 31.9997 20.1801 31.9981C19.474 31.9981 19.0996 31.6249 19.0988 30.9172C19.0988 28.507 19.0988 26.0965 19.0988 23.6858C19.0988 22.5715 18.4656 21.9359 17.3575 21.9328C16.4604 21.9328 15.5634 21.9328 14.6663 21.9328C13.5779 21.9328 12.9439 22.5739 12.9431 23.6691C12.9431 26.0592 12.9431 28.4488 12.9431 30.8379C12.9431 31.6526 12.5965 31.9973 11.7828 31.9973C10.1997 31.9973 8.61534 31.9973 7.02966 31.9973C4.93132 31.9973 3.44721 30.5138 3.44484 28.4137C3.44009 25.3875 3.44009 22.3612 3.44484 19.335V18.9491C3.08786 18.919 2.74434 18.9205 2.41585 18.8556C1.29743 18.6376 0.534399 17.9767 0.171089 16.9045C-0.192221 15.8322 0.032572 14.8686 0.755235 14.0119C0.849426 13.901 0.95549 13.7995 1.05839 13.6949C5.13422 9.61468 9.20899 5.53338 13.2827 1.45104C13.8716 0.860637 14.4431 0.257557 15.2702 0L16.7733 0.001585ZM20.9732 30.1207H21.3586C22.5151 30.1207 23.6738 30.0771 24.8287 30.1326C25.9986 30.1889 26.7521 29.4297 26.7371 28.2417C26.6935 24.8927 26.7212 21.5429 26.722 18.1938C26.722 17.3847 27.0711 17.0392 27.8871 17.0384C28.294 17.0384 28.7 17.0447 29.1069 17.0384C29.3067 17.0411 29.5028 16.9843 29.6704 16.8752C29.8379 16.7661 29.9693 16.6097 30.048 16.4258C30.2411 16.0193 30.1778 15.6333 29.9008 15.2846C29.8131 15.181 29.7196 15.0826 29.6206 14.9898C25.406 10.7664 21.1903 6.54459 16.9736 2.32435C16.2905 1.63965 15.757 1.63806 15.0779 2.31801C11.3044 6.09605 7.53148 9.87355 3.75907 13.6505C3.23429 14.1783 2.70397 14.6934 2.19106 15.2268C2.03758 15.3721 1.93401 15.5623 1.89519 15.7701C1.85637 15.978 1.8843 16.1928 1.97498 16.3838C2.15465 16.8046 2.49184 17.0281 2.95488 17.036C3.35065 17.0424 3.74641 17.036 4.14217 17.036C4.97644 17.036 5.31996 17.3792 5.31996 18.2113C5.31996 21.6237 5.31996 25.0361 5.31996 28.4486C5.31996 29.4566 5.97772 30.1128 6.98216 30.1175C8.24306 30.1175 9.50396 30.1175 10.7657 30.1175C10.8559 30.1175 10.9469 30.1072 11.0672 30.1001V29.7142C11.0672 27.6688 11.0585 25.6234 11.0672 23.578C11.0783 21.6411 12.4128 20.1893 14.3402 20.0768C15.4483 20.0118 16.5699 20.0609 17.6844 20.0673C17.8711 20.0713 18.0569 20.0955 18.2384 20.1394C19.8769 20.5071 20.955 21.8535 20.9637 23.5685C20.974 25.6139 20.9637 27.6593 20.9637 29.7039L20.9732 30.1207Z" fill="black"/>
</svg>
